…
dat <-
  data.frame(tag = rep(letters[1:.N], .group),
             key = rep(LETTERS[1:.group], each = .N),
             value = sample(1:10, .N * .group, replace = T)) %>% 
  group_by(key) %>% 
  mutate(value = value / sum(value)) %>% 
  ungroup()
```


```
## # A tibble: 35 x 3
##    tag   key    value
##    <chr> <chr>  <dbl>
##  1 a     A     0.0652
##  2 b     A     0.152 
##  3 c     A     0.217 
##  4 d     A     0.130 
##  5 e     A     0.0652
##  6 f     A     0.152 
##  7 g     A     0.217 
##  8 a     B     0.0526
##  9 b     B     0.105 
## 10 c     B     0.158 
## # … with 25 more rows
```
…
- 総当たり組み合わせを作り、データを結合する。


```r
dat_grid <- 
  dat_wide$key %>% 
  expand.grid(., .) %>% 
  as_tibble() %>% 
  left_join(dat_wide_nest %>% rename(Var1 = key), by = "Var1") %>% 
  left_join(dat_wide_nest %>% rename(Var2 = key), by = "Var2")
```


```
## # A tibble: 25 x 4
##    Var1  Var2              data.x             data.y
##    <chr> <chr> <list<tbl_df[,7]>> <list<tbl_df[,7]>>
##  1 A     A                [1 × 7]            [1 × 7]
##  2 B     A                [1 × 7]            [1 × 7]
##  3 C     A                [1 × 7]            [1 × 7]
##  4 D     A                [1 × 7]            [1 × 7]
##  5 E     A                [1 × 7]            [1 × 7]
##  6 A     B                [1 × 7]            [1 × 7]
##  7 B     B                [1 × 7]            [1 × 7]
##  8 C     B                [1 × 7]            [1 × 7]
##  9 D     B                [1 × 7]            [1 × 7]
## 10 E     B                [1 × 7]            [1 × 7]
## # … with 15 more rows
```
- `map2_dbl()`を使ってJSDを計算。


```r
dat_JSD <-
  dat_grid %>% 
  mutate(JSD = map2_dbl(data.x, data.y, 
                        ~ bind_rows(.x, .y) %>% 
                          as.matrix() %>% 
                          JSD()))
```


```
## # A tibble: 25 x 5
##    Var1  Var2              data.x             data.y    JSD
##    <chr> <chr> <list<tbl_df[,7]>> <list<tbl_df[,7]>>  <dbl>
##  1 A     A                [1 × 7]            [1 × 7] 0     
##  2 B     A                [1 × 7]            [1 × 7] 0.0478
##  3 C     A                [1 × 7]            [1 × 7] 0.117 
##  4 D     A                [1 × 7]            [1 × 7] 0.118 
##  5 E     A                [1 × 7]            [1 × 7] 0.0890
##  6 A     B                [1 × 7]            [1 × 7] 0.0478
##  7 B     B                [1 × 7]            [1 × 7] 0     
##  8 C     B                [1 × 7]            [1 × 7] 0.132 
##  9 D     B                [1 × 7]            [1 × 7] 0.136 
## 10 E     B                [1 × 7]            [1 × 7] 0.0823
## # … with 15 more rows
```
…
